潜在变量分析（基础）
…
---

## 一个心理学案例

19,719 参与者, the "Big Five Personality" Test

变量名：

```
## # A tibble: 19,719 x 57
##     race   age engnat gender  hand source
##    <dbl> <dbl>  <dbl>  <dbl> <dbl>  <dbl>
##  1     3    53      1      1     1      1
##  2    13    46      1      2     1      1
##  3     1    14      2      2     1      1
##  4     3    19      2      2     1      1
##  5    11    25      2      2     1      2
##  6    13    31      1      2     1      2
##  7     5    20      1      2     1      5
##  8     4    23      2      1     1      2
##  9     5    39      1      2     3      4
## 10     3    18      1      2     1      5
## # ... with 19,709 more rows, and 51 more
## #   variables: country <chr>, E1 <dbl>,
## #   E2 <dbl>, E3 <dbl>, E4 <dbl>,
## #   E5 <dbl>, E6 <dbl>, E7 <dbl>,
## #   E8 <dbl>, E9 <dbl>, E10 <dbl>,
## #   N1 <dbl>, N2 <dbl>, N3 <dbl>,
## #   N4 <dbl>, N5 <dbl>, N6 <dbl>, ...
```
…
