持续期分析及事件史分析
…
`\(\beta_{probit} = \frac{\sqrt 3}{\pi}\beta_{logit}.\)`

此处用probability来建构likelihood, 因为likelihood存在scale issue, 通常不可知。此法被Gary称为Unified Maximum Likelihood

---

class: small

## 应用举例

研究美国印第安部落与州协调法案（Indian Gaming Compact）在各州的推行情况。变量包括：religion (`religion`), the number of federally recognized tribes (`fedtrib`), total population (`totpop`), and real income per capita (`rpcpinc`).

```
## # A tibble: 528 x 9
##    state stateno  year totpop rpcpinc ideology fedtribe religion adopt_year
##    <chr>   <dbl> <dbl>  <dbl>   <dbl>    <dbl>    <dbl>    <dbl>      <int>
##  1 AL          1  1989   4.10    18.0    -23.1        1     33.9         NA
##  2 AL          1  1990   4.12    17.9    -23.1        1     33.9         NA
##  3 AL          1  1991   4.09    18.0    -23.1        1     33.9         NA
##  4 AL          1  1992   4.13    18.6    -23.1        1     33.9         NA
##  5 AL          1  1993   4.18    18.7    -23.1        1     33.9         NA
##  6 AL          1  1994   4.22    19.1    -23.1        1     33.9         NA
##  7 AL          1  1995   4.26    19.8    -23.1        1     33.9         NA
##  8 AL          1  1996   4.27    20.1    -23.1        1     33.9         NA
##  9 AL          1  1997   4.32    20.4    -23.1        1     33.9         NA
## 10 AL          1  1998   4.35    21.2    -23.1        1     33.9         NA
## # ... with 518 more rows
```
…
