计算机辅助文本分析·操作
…
```r
library(tidytext)
library(gutenbergr)

titles <- c("The War of the Worlds","Pride and Prejudice")

books <- gutenberg_works(title %in% titles) %>%
  gutenberg_download(meta_fields = "title") %>%
  mutate(document = row_number())

books
```

```
## # A tibble: 20,673 x 4
##    gutenberg_id text                           title        document
##           <int> <chr>                          <chr>           <int>
##  1           36 "The War of the Worlds"        The War of ~        1
##  2           36 ""                             The War of ~        2
##  3           36 "by H. G. Wells [1898]"        The War of ~        3
##  4           36 ""                             The War of ~        4
##  5           36 ""                             The War of ~        5
##  6           36 "     But who shall dwell in ~ The War of ~        6
##  7           36 "     inhabited? .  .  .  Are~ The War of ~        7
##  8           36 "     World? .  .  .  And how~ The War of ~        8
##  9           36 "          KEPLER (quoted in ~ The War of ~        9
## 10           36 ""                             The War of ~       10
## # ... with 20,663 more rows
```
…
+ 划分比较单位（行、段、章、本等)
+ 保留常用词

```r
tidy_books <- books %>%
  unnest_tokens(word, text) %>%
  group_by(word) %>%
  filter(n() > 10) %>% # keep words occurring over 10 times
  ungroup()

tidy_books
```

```
## # A tibble: 159,743 x 4
##    gutenberg_id title                 document word 
##           <int> <chr>                    <int> <chr>
##  1           36 The War of the Worlds        1 the  
##  2           36 The War of the Worlds        1 war  
##  3           36 The War of the Worlds        1 of   
##  4           36 The War of the Worlds        1 the  
##  5           36 The War of the Worlds        3 by   
##  6           36 The War of the Worlds        6 but  
##  7           36 The War of the Worlds        6 who  
##  8           36 The War of the Worlds        6 shall
##  9           36 The War of the Worlds        6 in   
## 10           36 The War of the Worlds        6 these
## # ... with 159,733 more rows
```
…
classifications <- tidy_books %>%
  inner_join(test_data) %>%
  inner_join(coefs, by = c("word" = "term")) %>%
  group_by(document) %>%
  summarize(score = sum(estimate)) %>%
  mutate(probability = plogis(intercept + score))

classifications
```

```
## # A tibble: 4,282 x 3
##    document    score probability
##       <int>    <dbl>       <dbl>
##  1        6   1.65     0.916    
##  2       13  -0.418    0.580    
##  3       24   0.0480   0.688    
##  4       29  -3.56     0.0561   
##  5       38  -3.70     0.0493   
##  6       40  -0.836    0.476    
##  7       45 -11.1      0.0000330
##  8       46  -7.14     0.00167  
##  9       47  -0.693    0.512    
## 10       49  -3.07     0.0889   
## # ... with 4,272 more rows
```
…
